2018 SACNAS Poster Figures | Vazquez.Bio
…
genomes %>%
  lapply(
    .,
    function(g){
      dir(path = str_glue("../../../RecBlast/output/{g}/AvA-pcScore0.1_pcIdent0.8_pcQuerySpan0.5/filtered/"), pattern=".*_rbb_evidenced\\.bed12", full.names = T) %>% 
      read_tsv(col_names = F, col_types = "cccccccccccc") %>% 
    separate(X4, c("X4","n"), sep="_") %>% 
    left_join(., tt %>% select(ID, Name) %>% unique %>% rename(X4=ID), by="X4") %>% 
    unite(X4, c("Name", "n"), sep = "_") %>% 
    select(X1,X2,X3,X4,X5,X6,X7,X8,X9,X10,X11,X12) %>% 
    write_tsv(str_glue("../../../RecBlast/output/{g}/AvA-pcScore0.1_pcIdent0.8_pcQuerySpan0.5/other/{g}_rbb_evidenced_GeneNames.bed12"), col_names = F)}
  )

## $loxAfr3
## # A tibble: 36,445 x 12
##    X1    X2    X3    X4    X5    X6    X7    X8    X9    X10   X11   X12  
##    <chr> <chr> <chr> <chr> <chr> <chr> <chr> <chr> <chr> <chr> <chr> <chr>
##  1 chrM  14146 15268 MT-C… 504   +     14146 15268 255,… 1     1122  0    
##  2 chrM  2773  3640  MT-N… 339   +     2773  3640  255,… 1     867   0    
##  3 chrM  8600  9383  MT-C… 435   +     8600  9383  255,… 1     783   0    
##  4 scaf… 1008… 1027… EYS_0 4202  +     1008… 1027… 255,… 29    753,… 0,22…
##  5 scaf… 1008… 1008… EYS_0 183   +     1008… 1008… 255,… 1     441   0    
##  6 scaf… 1028… 1028… PHF3… 4314  -     1028… 1028… 255,… 20    1278… 0,12…
##  7 scaf… 1028… 1028… PHF3… 1254  -     1028… 1028… 255,… 5     837,… 0,97…
##  8 scaf… 1028… 1028… PHF3… 240   -     1028… 1028… 255,… 1     246   0    
##  9 scaf… 1029… 1029… PTP4… 429   -     1029… 1029… 255,… 4     117,… 0,19…
## 10 scaf… 1029… 1029… PTP4… 503   -     1029… 1029… 255,… 5     114,… 0,80…
## # ... with 36,435 more rows
## 
## $triMan1
## # A tibble: 36,387 x 12
##    X1    X2    X3    X4    X5    X6    X7    X8    X9    X10   X11   X12  
##    <chr> <chr> <chr> <chr> <chr> <chr> <chr> <chr> <chr> <chr> <chr> <chr>
##  1 AHIN… 6832  7831  TAAR… 406   +     6832  7831  255,… 2     465,… 0,498
##  2 AHIN… 7076  12418 SHRO… 1204  +     7076  12418 255,… 12    105,… 0,10…
##  3 AHIN… 4789  5808  CTSG… 106   +     4789  5808  255,… 2     57,1… 0,848
##  4 AHIN… 6280  6541  CARD… 111   -     6280  6541  255,… 1     261   0    
##  5 AHIN… 6280  6541  CARD… 93    -     6280  6541  255,… 1     261   0    
##  6 AHIN… 7993  9792  CTSG… 249   +     7993  9792  255,… 5     81,5… 0,93…
##  7 AHIN… 5711  7806  SLC4… 247   +     5711  7806  255,… 3     108,… 0,45…
##  8 AHIN… 7662  7806  SLC4… 96    +     7662  7806  255,… 1     144   0    
##  9 AHIN… 4871  5105  HSFX… 96    -     4871  5105  255,… 1     234   0    
## 10 AHIN… 2423  5942  CELA… 363   -     2423  5942  255,… 4     156,… 0,13…
## # ... with 36,377 more rows
## 
## $proCap1
## # A tibble: 35,409 x 12
##    X1    X2    X3    X4    X5    X6    X7    X8    X9    X10   X11   X12  
##    <chr> <chr> <chr> <chr> <chr> <chr> <chr> <chr> <chr> <chr> <chr> <chr>
##  1 scaf… 1932… 2823… TTN_0 16791 -     1932… 2823… 255,… 87    279,… 0,37…
##  2 scaf… 1943… 2823… TTN_0 16786 -     1943… 2823… 255,… 88    288,… 0,39…
##  3 scaf… 3589… 3687… CCDC… 264   -     3589… 3687… 255,… 3     219,… 0,70…
##  4 scaf… 92128 2823… TTN_0 17162 -     92128 2823… 255,… 98    315,… 0,39…
##  5 scaf… 1161… 1200… TMEM… 861   +     1161… 1200… 255,… 3     435,… 0,51…
##  6 scaf… 1215… 1233… CYB5… 556   -     1215… 1233… 255,… 2     501,… 0,17…
##  7 scaf… 1241… 1248… NPRL… 164   +     1241… 1248… 255,… 2     75,96 0,637
##  8 scaf… 1241… 1248… NPRL… 164   +     1241… 1248… 255,… 2     75,1… 0,637
##  9 scaf… 1241… 1271… NPRL… 1094  +     1241… 1271… 255,… 11    75,9… 0,63…
## 10 scaf… 1289… 1321… ZMYN… 1019  +     1289… 1321… 255,… 11    105,… 0,86…
## # ... with 35,399 more rows
## 
## $oryAfe1
## # A tibble: 37,205 x 12
##    X1    X2    X3    X4    X5    X6    X7    X8    X9    X10   X11   X12  
##    <chr> <chr> <chr> <chr> <chr> <chr> <chr> <chr> <chr> <chr> <chr> <chr>
##  1 ALYB… 11473 11569 RNF2… 90    +     11473 11569 255,… 1     96    0    
##  2 ALYB… 7447  9184  TMEM… 1420  +     7447  9184  255,… 5     183,… 0,19…
##  3 ALYB… 13144 13479 BCAP… 162   +     13144 13479 255,… 3     93,6… 0,21…
##  4 ALYB… 13144 13479 BCAP… 162   +     13144 13479 255,… 3     93,6… 0,21…
##  5 ALYB… 13144 13237 BCAP… 81    +     13144 13237 255,… 1     93    0    
##  6 ALYB… 13425 13479 BCAP… 54    +     13425 13479 255,… 1     54    0    
##  7 ALYB… 5903  5987  KYNU… 66    -     5903  5987  255,… 1     84    0    
##  8 ALYB… 3665  6830  TMEM… 416   +     3665  6830  255,… 2     144,… 0,28…
##  9 ALYB… 2568  2649  DEGS… 69    -     2568  2649  255,… 1     81    0    
## 10 ALYB… 8988  9243  GPR1… 249   +     8988  9243  255,… 1     255   0    
## # ... with 37,195 more rows
## 
## $echTel2
## # A tibble: 35,484 x 12
##    X1    X2    X3    X4    X5    X6    X7    X8    X9    X10   X11   X12  
##    <chr> <chr> <chr> <chr> <chr> <chr> <chr> <chr> <chr> <chr> <chr> <chr>
##  1 AAIY… 11356 11656 IGHV… 114   +     11356 11656 255,… 1     300   0    
##  2 AAIY… 556   3516  RNF1… 139   +     556   3516  255,… 2     165,… 0,27…
##  3 AAIY… 3832  4036  SPTS… 174   +     3832  4036  255,… 1     204   0    
##  4 AAIY… 107   5438  KIFC… 1239  +     107   5438  255,… 14    144,… 0,32…
##  5 AAIY… 6232  7236  FOXH… 558   -     6232  7236  255,… 5     177,… 0,19…
##  6 AAIY… 1     1005  FOXH… 558   +     1     1005  255,… 5     108,… 0,20…
##  7 AAIY… 2111  7130  KIFC… 1254  -     2111  7130  255,… 14    264,… 0,34…
##  8 AAIY… 1     4864  PGAM… 337   -     1     4864  255,… 2     276,… 0,47…
##  9 AAIY… 2702  2852  RNF1… 78    +     2702  2852  255,… 1     150   0    
## 10 AAIY… 276   2642  CCT8… 864   +     276   2642  255,… 4     561,… 0,64…
## # ... with 35,474 more rows
## 
## $dasNov3
## # A tibble: 41,911 x 12
##    X1    X2    X3    X4    X5    X6    X7    X8    X9    X10   X11   X12  
##    <chr> <chr> <chr> <chr> <chr> <chr> <chr> <chr> <chr> <chr> <chr> <chr>
##  1 AAGV… 1156  1393  IL1R… 88    +     1156  1393  255,… 2     72,1… 0,93 
##  2 AAGV… 1156  1393  IL1R… 88    +     1156  1393  255,… 2     72,1… 0,93 
##  3 AAGV… 546   1058  H3F3… 212   -     546   1058  255,… 2     132,… 0,305
##  4 AAGV… 550   1058  H3F3… 277   -     550   1058  255,… 2     129,… 0,244
##  5 AAGV… 794   1058  H3F3… 162   -     794   1058  255,… 1     264   0    
##  6 AAGV… 143   592   METT… 200   -     143   592   255,… 2     141,… 0,317
##  7 AAGV… 460   592   METT… 102   -     460   592   255,… 1     132   0    
##  8 AAGV… 369   672   TINF… 161   +     369   672   255,… 2     117,… 0,204
##  9 AAGV… 375   1014  PRKA… 154   -     375   1014  255,… 2     423,… 0,468
## 10 AAGV… 172   598   AP5S… 324   +     172   598   255,… 1     426   0    
## # ... with 41,901 more rows
…
## $loxAfr3
## # A tibble: 32 x 11
##    geneset description link      C     O     E     R   PValue     FDR
##    <chr>   <chr>       <chr> <int> <int> <dbl> <dbl>    <dbl>   <dbl>
##  1 R-HSA-… mRNA Splic… http…   176    39 11.5   3.38 8.24e-12 1.07e-8
##  2 R-HSA-… mRNA Splic… http…   184    39 12.1   3.24 3.51e-11 1.75e-8
##  3 R-HSA-… Processing… http…   235    45 15.4   2.92 4.05e-11 1.75e-8
##  4 R-HSA-… Biological… http…   215    39 14.1   2.77 4.29e- 9 1.39e-6
##  5 R-HSA-… Keratiniza… http…   213    37 14.0   2.65 3.57e- 8 9.28e-6
##  6 R-HSA-… Interferon… http…    92    20  6.03  3.32 1.49e- 6 3.23e-4
##  7 R-HSA-… Interferon… http…   193    31 12.6   2.45 2.66e- 6 4.94e-4
##  8 R-HSA-… Xenobiotics http…    24     9  1.57  5.72 1.12e- 5 1.82e-3
##  9 R-HSA-… Phase II c… http…   103    19  6.75  2.82 3.31e- 5 4.77e-3
## 10 R-HSA-… Phase 1 - … http…   106    19  6.94  2.74 5.01e- 5 5.69e-3
## # ... with 22 more rows, and 2 more variables: overlapGene <chr>,
## #   OverlapGene_UserID <chr>
## 
## $triMan1
## # A tibble: 123 x 11
##    geneset description link      C     O     E     R   PValue     FDR
##    <chr>   <chr>       <chr> <int> <int> <dbl> <dbl>    <dbl>   <dbl>
##  1 R-HSA-… Processing… http…   235    52 18.7   2.78 6.17e-12 8.01e-9
##  2 R-HSA-… mRNA Splic… http…   176    42 14.0   3.00 5.63e-11 2.97e-8
##  3 R-HSA-… mRNA Splic… http…   184    43 14.7   2.93 6.85e-11 2.97e-8
##  4 R-HSA-… The role o… http…    74    19  5.89  3.22 3.42e- 6 1.11e-3
##  5 R-HSA-… G2/M Trans… http…   186    32 14.8   2.16 2.43e- 5 5.61e-3
##  6 R-HSA-… Regulation… http…    78    18  6.21  2.90 3.01e- 5 5.61e-3
##  7 R-HSA-… Mitotic G2… http…   188    32 15.0   2.14 3.02e- 5 5.61e-3
##  8 R-HSA-… Stabilizat… http…    52    14  4.14  3.38 3.72e- 5 5.71e-3
##  9 R-HSA-… MAPK6/MAPK… http…    87    19  6.93  2.74 4.15e- 5 5.71e-3
## 10 R-HSA-… APC/C:Cdc2… http…    73    17  5.82  2.92 4.40e- 5 5.71e-3
## # ... with 113 more rows, and 2 more variables: overlapGene <chr>,
## #   OverlapGene_UserID <chr>
## 
## $proCap1
…
##  3 R-HSA-… Glucuronid… http…    23     8 0.781 10.2  5.07e- 7 2.20e-4
##  4 R-HSA-… Phase 1 - … http…   106    15 3.60   4.17 2.60e- 6 8.45e-4
##  5 R-HSA-… Xenobiotics http…    24     7 0.815  8.59 1.02e- 5 2.66e-3
##  6 R-HSA-… CYP2E1 rea… http…    11     5 0.373 13.4  1.71e- 5 3.69e-3
##  7 R-HSA-… Cytochrome… http…    65    10 2.21   4.53 6.01e- 5 1.11e-2
##  8 R-HSA-… Fatty acids http…    15     5 0.509  9.82 9.91e- 5 1.61e-2
##  9 R-HSA-… Prefoldin … http…    27     6 0.917  6.54 2.36e- 4 3.41e-2
## 10 R-HSA-… Cooperatio… http…    31     6 1.05   5.70 5.24e- 4 6.19e-2
## 11 R-HSA-… RHO GTPase… http…    31     6 1.05   5.70 5.24e- 4 6.19e-2
## 12 R-HSA-… Uptake and… http…    13     4 0.441  9.06 7.31e- 4 7.91e-2
## 13 R-HSA-… Keratiniza… http…   213    17 7.23   2.35 9.22e- 4 9.21e-2
## # ... with 2 more variables: overlapGene <chr>, OverlapGene_UserID <chr>
## 
## $oryAfe1
## # A tibble: 106 x 11
##    geneset description link      C     O     E     R   PValue     FDR
##    <chr>   <chr>       <chr> <int> <int> <dbl> <dbl>    <dbl>   <dbl>
##  1 R-HSA-… Processing… http…   235    53 19.6   2.70 1.13e-11 1.18e-8
##  2 R-HSA-… mRNA Splic… http…   176    44 14.7   2.99 1.81e-11 1.18e-8
##  3 R-HSA-… mRNA Splic… http…   184    44 15.4   2.86 8.85e-11 3.83e-8
##  4 R-HSA-… Translation http…    76    22  6.35  3.46 1.35e- 7 4.38e-5
##  5 R-HSA-… Eukaryotic… http…    39    15  3.26  4.60 2.21e- 7 4.79e-5
##  6 R-HSA-… Cap-depend… http…    39    15  3.26  4.60 2.21e- 7 4.79e-5
##  7 R-HSA-… Activation… http…    28    12  2.34  5.13 9.25e- 7 1.66e-4
##  8 R-HSA-… Cellular r… http…   408    63 34.1   1.85 1.02e- 6 1.66e-4
##  9 R-HSA-… L13a-media… http…    31    12  2.59  4.63 3.39e- 6 4.89e-4
## 10 R-HSA-… Attenuatio… http…    14     8  1.17  6.84 4.38e- 6 5.01e-4
## # ... with 96 more rows, and 2 more variables: overlapGene <chr>,
## #   OverlapGene_UserID <chr>
## 
## $echTel2
## # A tibble: 356 x 11
##    geneset description link      C     O     E     R   PValue      FDR
##    <chr>   <chr>       <chr> <int> <int> <dbl> <dbl>    <dbl>    <dbl>
##  1 R-HSA-… Cell Cycle  http…   583   124 64.0   1.94 5.86e-14 7.61e-11
##  2 R-HSA-… Cell Cycle… http…   483   107 53.0   2.02 2.42e-13 1.57e-10
##  3 R-HSA-… Processing… http…   235    64 25.8   2.48 1.90e-12 5.82e-10
##  4 R-HSA-… G2/M Trans… http…   186    55 20.4   2.70 2.02e-12 5.82e-10
##  5 R-HSA-… Mitotic G1… http…   140    46 15.4   3.00 2.24e-12 5.82e-10
##  6 R-HSA-… Mitotic G2… http…   188    55 20.6   2.67 3.25e-12 7.03e-10
##  7 R-HSA-… The role o… http…    74    31  8.12  3.82 7.12e-12 1.32e- 9
##  8 R-HSA-… G1/S Trans… http…   116    39 12.7   3.06 4.90e-11 7.96e- 9
##  9 R-HSA-… Prefoldin … http…    27    17  2.96  5.74 1.23e-10 1.77e- 8
## 10 R-HSA-… Cooperatio… http…    31    18  3.40  5.29 2.35e-10 3.05e- 8
## # ... with 346 more rows, and 2 more variables: overlapGene <chr>,
## #   OverlapGene_UserID <chr>
## 
## $dasNov3
## # A tibble: 319 x 11
##    geneset description link      C     O     E     R   PValue      FDR
##    <chr>   <chr>       <chr> <int> <int> <dbl> <dbl>    <dbl>    <dbl>
##  1 R-HSA-… mRNA Splic… http…   176    83 25.8   3.22 0.       0.      
##  2 R-HSA-… mRNA Splic… http…   184    84 27.0   3.12 0.       0.      
##  3 R-HSA-… Processing… http…   235   101 34.4   2.93 0.       0.      
##  4 R-HSA-… RNA Polyme… http…   145    68 21.2   3.20 0.       0.      
##  5 R-HSA-… Cleavage o… http…    65    35  9.52  3.68 1.45e-13 3.15e-11
##  6 R-HSA-… RNA Polyme… http…    65    35  9.52  3.68 1.45e-13 3.15e-11
##  7 R-HSA-… Infectious… http…   292    91 42.8   2.13 2.42e-13 4.49e-11
##  8 R-HSA-… HIV Infect… http…   223    72 32.7   2.20 1.30e-11 2.10e- 9
##  9 R-HSA-… mRNA 3'-en… http…    57    30  8.35  3.59 1.76e-11 2.54e- 9
## 10 R-HSA-… Cell Cycle  http…   583   144 85.4   1.69 2.55e-11 3.31e- 9
## # ... with 309 more rows, and 2 more variables: overlapGene <chr>,
## #   OverlapGene_UserID <chr>
## 
## $mm10
## # A tibble: 339 x 11
##    geneset description link      C     O     E     R   PValue      FDR
##    <chr>   <chr>       <chr> <int> <int> <dbl> <dbl>    <dbl>    <dbl>
##  1 R-HSA-… mRNA Splic… http…   176    69 20.0   3.46 0.       0.      
##  2 R-HSA-… mRNA Splic… http…   184    70 20.9   3.35 0.       0.      
##  3 R-HSA-… Processing… http…   235    80 26.6   3.00 0.       0.      
##  4 R-HSA-… Infectious… http…   292    78 33.1   2.36 1.22e-13 3.96e-11
##  5 R-HSA-… Cell Cycle  http…   583   123 66.1   1.86 1.54e-12 3.99e-10
##  6 R-HSA-… Cell Cycle… http…   483   105 54.8   1.92 1.19e-11 2.57e- 9
##  7 R-HSA-… The role o… http…    74    31  8.39  3.69 1.70e-11 3.16e- 9
##  8 R-HSA-… HIV Infect… http…   223    60 25.3   2.37 6.62e-11 1.07e- 8
##  9 R-HSA-… Separation… http…   177    51 20.1   2.54 1.28e-10 1.76e- 8
## 10 R-HSA-… Mitotic An… http…   188    53 21.3   2.49 1.36e-10 1.76e- 8
## # ... with 329 more rows, and 2 more variables: overlapGene <chr>,
## #   OverlapGene_UserID <chr>
…
  "MAD2L1", "Mitotic Prometaphase", 7, "53.247437;46.728935;1.984854;53.247437;6.405835;37.413486;0"
) %>% 
  separate_rows(TPMs, sep=";") %>% 
  group_by(Gene) %>% 
  mutate(id=1:max(Copies)) %>% 
  ungroup %>% 
  mutate(
    Gene=as.factor(Gene),
    id=as.factor(id),
    TPMs=as.numeric(TPMs),
    Reactome.Pathway=as.factor(Reactome.Pathway)
  )
)

## # A tibble: 23 x 5
##    Gene  Reactome.Pathway             Copies     TPMs id   
##    <fct> <fct>                         <dbl>    <dbl> <fct>
##  1 PCNA  Translesion syntheis by REV1      2 259.     1    
##  2 PCNA  Translesion syntheis by REV1      2   0.0855 2    
##  3 RFC5  Translesion syntheis by REV1      2  12.6    1    
##  4 RFC5  Translesion syntheis by REV1      2   0      2    
##  5 RPA2  Translesion syntheis by REV1      2   7.92   1    
##  6 RPA2  Translesion syntheis by REV1      2   6.83   2    
##  7 UBE2C Cellular response to stress       4  28.0    1    
##  8 UBE2C Cellular response to stress       4  72.1    2    
##  9 UBE2C Cellular response to stress       4   6.15   3    
## 10 UBE2C Cellular response to stress       4   0      4    
## # ... with 13 more rows
…
